<?xml version="1.0" encoding="UTF-8" standalone="no"?>
<!-- Created with Inkscape (http://www.inkscape.org/) -->

<svg
   xmlns:dc="http://purl.org/dc/elements/1.1/"
   xmlns:cc="http://creativecommons.org/ns#"
   xmlns:rdf="http://www.w3.org/1999/02/22-rdf-syntax-ns#"
   xmlns:svg="http://www.w3.org/2000/svg"
   xmlns="http://www.w3.org/2000/svg"
   xmlns:sodipodi="http://sodipodi.sourceforge.net/DTD/sodipodi-0.dtd"
   xmlns:inkscape="http://www.inkscape.org/namespaces/inkscape"
   width="23mm"
   height="14.195mm"
   viewBox="0 0 23.000001 14.195001"
   version="1.1"
   id="svg8"
   inkscape:version="0.92.4 (5da689c313, 2019-01-14)"
   sodipodi:docname="fscilogoheader.svg">
  <title
     id="title857">FSCI Dark Background logo</title>
  <defs
     id="defs2" />
  <sodipodi:namedview
     id="base"
     pagecolor="#ffffff"
     bordercolor="#666666"
     borderopacity="1.0"
     inkscape:pageopacity="0.0"
     inkscape:pageshadow="2"
     inkscape:zoom="0.98994949"
     inkscape:cx="122.99045"
     inkscape:cy="-35.780231"
     inkscape:document-units="mm"
     inkscape:current-layer="layer1"
     showgrid="false"
     units="mm"
     inkscape:window-width="1920"
     inkscape:window-height="1038"
     inkscape:window-x="0"
     inkscape:window-y="18"
     inkscape:window-maximized="0" />
  <metadata
     id="metadata5">
    <rdf:RDF>
      <cc:Work
         rdf:about="">
        <dc:format>image/svg+xml</dc:format>
        <dc:type
           rdf:resource="http://purl.org/dc/dcmitype/StillImage" />
        <dc:title>FSCI Dark Background logo</dc:title>
        <cc:license
           rdf:resource="http://creativecommons.org/licenses/by-sa/4.0/" />
      </cc:Work>
      <cc:License
         rdf:about="http://creativecommons.org/licenses/by-sa/4.0/">
        <cc:permits
           rdf:resource="http://creativecommons.org/ns#Reproduction" />
        <cc:permits
           rdf:resource="http://creativecommons.org/ns#Distribution" />
        <cc:requires
           rdf:resource="http://creativecommons.org/ns#Notice" />
        <cc:requires
           rdf:resource="http://creativecommons.org/ns#Attribution" />
        <cc:permits
           rdf:resource="http://creativecommons.org/ns#DerivativeWorks" />
        <cc:requires
           rdf:resource="http://creativecommons.org/ns#ShareAlike" />
      </cc:License>
    </rdf:RDF>
  </metadata>
  <g
     inkscape:label="Layer 1"
     inkscape:groupmode="layer"
     id="layer1"
     transform="translate(0,-282.80498)">
    <g
       transform="matrix(0.10454545,0,0,0.1045203,9.8989674,263.7895)"
       id="layer1-0"
       inkscape:label="Layer 1">
      <g
         transform="translate(-36.407424,136.07498)"
         id="g1089">
        <path
           style="fill:#1a1a1a;fill-opacity:1;stroke:none;stroke-width:0.19271298px;stroke-linecap:butt;stroke-linejoin:miter;stroke-opacity:1"
           d="m -2.8067508,46.28068 c 10.3243,0.783 32.0618998,-3.7186 43.8090998,5.4878 9.6313,7.5482 20.9522,29.8821 34.293,25.961401 8.7564,-2.573502 13.3259,-13.433301 22.6227,-15.619101 4.736101,-1.113599 9.970801,1.962301 14.184101,3.7992 -21.579301,13.5767 -21.657901,62.98361 -52.842501,73.4903 -20.409,6.876 -39.498,6.0296 -56.3691978,23.87951 1.801098,-18.3769 81.4724978,-62.73961 -5.697202,-116.99911 z"
           id="path4525-6-73-3-53-6-2-65"
           inkscape:connector-curvature="0"
           sodipodi:nodetypes="ccsccscc"
           inkscape:export-xdpi="300.04999"
           inkscape:export-ydpi="300.04999" />
        <path
           style="fill:#1a1a1a;fill-opacity:1;stroke:none;stroke-width:0.40613118;stroke-linecap:butt;stroke-linejoin:miter;stroke-miterlimit:4;stroke-dasharray:none;stroke-opacity:1"
           d="m -19.85205,78.20448 -38.4263,38.5011 v 26.46041 l 38.4263,38.5024 v -26.4604 l -25.222502,-25.27151 25.222502,-25.2716 z"
           id="rect4557-7-93-0-6-1-7-6-3-6"
           inkscape:connector-curvature="0"
           inkscape:export-xdpi="300.04999"
           inkscape:export-ydpi="300.04999" />
        <path
           style="fill:#1a1a1a;fill-opacity:1;stroke:none;stroke-width:0.40613118;stroke-linecap:butt;stroke-linejoin:miter;stroke-miterlimit:4;stroke-dasharray:none;stroke-opacity:1"
           d="m 123.29545,78.204382 v 26.459098 l 25.2225,25.2716 -25.2225,25.27291 v 26.4604 l 38.4262,-38.5024 v -26.46041 z"
           id="rect4557-7-9-6-2-1-9-3-9-5-39"
           inkscape:connector-curvature="0"
           inkscape:export-xdpi="300.04999"
           inkscape:export-ydpi="300.04999" />
      </g>
    </g>
  </g>
</svg>
